Correlation_R
…
##  [1] "name"     "rating"   "genre"    "year"     "released" "score"   
##  [7] "votes"    "director" "writer"   "star"     "country"  "budget"  
## [13] "gross"    "company"  "runtime"

Data Cleaning

remove rows with null values

rows with null values

movies_df %>% 
  filter(if_any(everything(),is.na))

## # A tibble: 2,247 x 15
##    name    rating genre  year released score votes director writer star  country
##    <chr>   <chr>  <chr> <dbl> <chr>    <dbl> <dbl> <chr>    <chr>  <chr> <chr>  
##  1 Fame    R      Drama  1980 May 16,~   6.6 21000 Alan Pa~ Chris~ Eddi~ United~
##  2 Stir C~ R      Come~  1980 Decembe~   6.8 26000 Sidney ~ Bruce~ Gene~ United~
##  3 Urban ~ PG     Drama  1980 June 6,~   6.4 14000 James B~ Aaron~ John~ United~
##  4 Altere~ R      Horr~  1980 Decembe~   6.9 33000 Ken Rus~ Paddy~ Will~ United~
##  5 Little~ R      Come~  1980 March 2~   6.5  5100 Ron Max~ Kimi ~ Tatu~ United~
##  6 Raise ~ PG     Acti~  1980 August ~   5    4100 Jerry J~ Adam ~ Jaso~ United~
##  7 My Bod~ PG     Come~  1980 Septemb~   7.1  8900 Tony Bi~ Alan ~ Chri~ United~
##  8 Prom N~ R      Horr~  1980 July 18~   5.4 16000 Paul Ly~ Willi~ Lesl~ Canada 
##  9 Smokey~ PG     Acti~  1980 August ~   5.3 15000 Hal Nee~ Hal N~ Burt~ United~
## 10 Seems ~ PG     Come~  1980 Decembe~   6.7  9100 Jay San~ Neil ~ Gold~ United~
## # ... with 2,237 more rows, and 4 more variables: budget <dbl>, gross <dbl>,
## #   company <chr>, runtime <dbl>
…
